<svg
    xmlns="http://www.w3.org/2000/svg"
    viewBox="0 0 503 503"
    id="vector">
    <path
        id="path"
        d="M 187.655 302.87 L 177.222 274.198 C 167.677 247.939 144.73 230.059 117.56 226.988 L 117.56 58.754 C 117.56 54.118 113.802 50.361 109.167 50.361 C 99.895 50.361 92.38 42.846 92.38 33.574 C 92.38 24.302 99.895 16.787 109.167 16.787 C 118.439 16.787 125.954 24.301 125.954 33.574 C 125.954 61.528 132.245 83.935 151.134 83.935 C 155.77 83.935 159.527 80.177 159.527 75.542 C 159.527 70.906 155.769 67.149 151.134 67.149 C 147.196 67.149 142.741 51.28 142.741 33.575 C 142.739 15.03 127.709 0 109.166 0 C 90.623 0 75.592 15.03 75.592 33.574 C 75.592 49.219 86.291 62.364 100.772 66.09 L 100.772 226.988 C 73.599 230.061 50.654 247.939 41.116 274.193 L 30.702 302.792 C 26.809 313.518 22.92 322.118 13.284 342.106 L 10.764 347.338 C 1.411 366.829 -1.907 388.573 1.162 410.2 C 8.02 458.453 48.052 497.362 96.518 502.889 C 100.688 503.366 104.942 503.606 109.17 503.606 C 138.302 503.606 165.734 492.243 186.325 471.643 C 206.919 451.049 218.285 423.615 218.285 394.491 C 218.285 377.332 214.176 360.22 206.389 344.964 C 198.253 329.024 192.305 315.652 187.655 302.87 Z M 174.453 459.775 C 157.01 477.226 133.849 486.82 109.17 486.82 C 105.577 486.82 101.96 486.616 98.424 486.211 C 57.544 481.549 23.565 448.523 17.783 407.84 C 15.179 389.488 17.986 371.093 25.895 354.612 L 28.408 349.393 C 38.291 328.891 42.33 319.961 46.479 308.528 L 56.892 279.932 C 64.989 257.642 85.457 243.302 109.169 243.302 C 132.875 243.302 153.342 257.645 161.445 279.936 L 171.879 308.611 C 176.782 322.087 183.005 336.078 191.436 352.598 C 198.016 365.489 201.497 379.986 201.497 394.493 C 201.498 419.163 191.901 442.327 174.453 459.775 Z"
        fill="#ffffff"/>
    <path
        id="path_1"
        d="M 156.098 314.343 L 145.665 285.664 C 133.278 251.565 85.061 251.565 72.662 285.665 L 62.255 314.268 C 57.968 326.057 53.632 335.693 43.979 355.738 C 43.732 356.25 43.732 356.25 43.486 356.762 C 42.254 359.32 41.711 360.448 41.021 361.887 C 34.613 375.24 32.246 390.244 34.403 405.48 C 39.162 438.961 66.703 465.701 100.326 469.525 C 145.577 474.687 184.705 439.534 184.705 394.491 C 184.705 382.437 181.865 370.771 176.496 360.237 C 168.014 343.639 161.376 328.843 156.098 314.343 Z M 102.226 452.847 C 76.19 449.886 54.705 429.026 51.024 403.123 C 49.335 391.192 51.174 379.531 56.157 369.15 C 56.843 367.72 57.381 366.601 58.611 364.047 C 58.858 363.535 58.858 363.535 59.105 363.022 C 68.997 342.482 73.494 332.488 78.032 320.007 L 88.439 291.404 C 95.481 272.037 122.855 272.037 129.889 291.4 L 140.323 320.084 C 145.862 335.301 152.774 350.707 161.544 367.87 C 165.714 376.051 167.919 385.108 167.919 394.494 C 167.919 429.536 137.494 456.87 102.226 452.847 Z"
        fill="#ffffff"/>
    <path
        id="path_2"
        d="M 491.765 345.072 C 483.605 329.083 477.66 315.721 473.033 302.981 L 462.598 274.304 C 453.053 248.045 430.106 230.165 402.936 227.094 L 402.936 58.754 C 402.936 54.118 399.178 50.361 394.543 50.361 C 385.271 50.361 377.756 42.846 377.756 33.574 C 377.756 24.302 385.271 16.787 394.543 16.787 C 403.815 16.787 411.33 24.301 411.33 33.574 C 411.33 61.528 417.62 83.935 436.51 83.935 C 441.146 83.935 444.903 80.177 444.903 75.542 C 444.903 70.906 441.145 67.149 436.51 67.149 C 432.572 67.149 428.117 51.28 428.117 33.575 C 428.116 15.03 413.086 0 394.543 0 C 376 0 360.969 15.03 360.969 33.574 C 360.969 49.219 371.668 62.364 386.149 66.09 L 386.149 227.094 C 358.976 230.167 336.031 248.045 326.493 274.299 L 316.079 302.898 C 312.186 313.624 308.297 322.224 298.661 342.212 L 296.141 347.444 C 286.787 366.935 283.469 388.678 286.538 410.305 C 293.396 458.558 333.428 497.467 381.894 502.994 C 386.064 503.471 390.318 503.711 394.546 503.711 C 423.678 503.711 451.11 492.348 471.701 471.748 C 492.295 451.154 503.661 423.72 503.661 394.596 C 503.662 377.439 499.552 360.327 491.765 345.072 Z M 459.83 459.882 C 442.387 477.333 419.226 486.927 394.547 486.927 C 390.954 486.927 387.337 486.723 383.801 486.318 C 342.921 481.655 308.942 448.63 303.16 407.947 C 300.556 389.595 303.363 371.2 311.272 354.719 L 313.785 349.5 C 323.668 328.998 327.707 320.068 331.856 308.635 L 342.269 280.039 C 350.366 257.749 370.834 243.409 394.546 243.409 C 418.252 243.409 438.719 257.751 446.822 280.043 L 457.256 308.718 C 462.135 322.153 468.357 336.135 476.813 352.705 C 483.393 365.596 486.874 380.093 486.874 394.6 C 486.875 419.27 477.278 442.434 459.83 459.882 Z"
        fill="#ffffff"/>
    <path
        id="path_3"
        d="M 441.475 314.449 L 431.042 285.77 C 418.655 251.671 370.438 251.671 358.039 285.771 L 347.632 314.374 C 343.345 326.163 339.009 335.799 329.356 355.844 C 329.109 356.356 329.109 356.356 328.863 356.868 C 327.631 359.426 327.088 360.554 326.398 361.993 C 319.99 375.346 317.623 390.35 319.78 405.586 C 324.539 439.067 352.08 465.807 385.703 469.631 C 430.954 474.793 470.082 439.64 470.082 394.597 C 470.082 382.543 467.242 370.877 461.873 360.343 C 453.392 343.746 446.753 328.949 441.475 314.449 Z M 387.603 452.953 C 361.567 449.992 340.082 429.132 336.401 403.229 C 334.712 391.298 336.551 379.637 341.534 369.256 C 342.22 367.826 342.758 366.707 343.988 364.153 C 344.235 363.641 344.235 363.641 344.482 363.128 C 354.374 342.588 358.871 332.594 363.409 320.113 L 373.816 291.51 C 380.858 272.143 408.232 272.143 415.266 291.506 L 425.7 320.19 C 431.239 335.407 438.151 350.813 446.921 367.976 C 451.091 376.157 453.296 385.214 453.296 394.6 C 453.296 429.643 422.871 456.976 387.603 452.953 Z"
        fill="#ffffff"/>
</svg>
