<svg
    xmlns="http://www.w3.org/2000/svg"
    viewBox="0 0 270 270"
    id="vector">
    <path
        id="path"
        d="M 132.926 107.134 C 133.36 104.103 133.113 100.936 132.037 97.854 C 128.448 87.572 117.165 82.126 106.879 85.719 C 96.6 89.308 91.158 100.591 94.747 110.875 C 95.82 113.958 97.599 116.597 99.827 118.695 C 89.704 122.38 84.365 133.552 87.926 143.753 C 91.515 154.034 102.798 159.477 113.084 155.888 C 118.045 154.152 121.868 150.618 124.103 146.283 C 125.251 153.573 125.37 162.781 119.282 164.905 L 132.873 160.158 L 146.466 155.417 C 140.378 157.54 134.742 150.265 131.102 143.838 C 135.555 145.85 140.742 146.233 145.706 144.5 C 155.987 140.911 161.43 129.626 157.84 119.345 C 154.272 109.141 143.142 103.718 132.926 107.134 Z"
        fill="#ffffff"/>
    <path
        id="path_1"
        d="M 58.411 65.77 C 58.544 64.834 58.467 63.854 58.133 62.9 C 57.025 59.717 53.531 58.035 50.348 59.143 C 47.165 60.251 45.483 63.745 46.591 66.927 C 46.924 67.884 47.475 68.696 48.164 69.345 C 45.032 70.484 43.38 73.942 44.484 77.097 C 45.592 80.28 49.086 81.962 52.269 80.854 C 53.802 80.317 54.988 79.225 55.676 77.881 C 56.031 80.137 56.069 82.985 54.185 83.645 L 58.39 82.177 L 62.598 80.709 C 60.715 81.369 58.97 79.113 57.843 77.125 C 59.219 77.748 60.825 77.867 62.358 77.331 C 65.541 76.223 67.224 72.729 66.115 69.546 C 65.02 66.393 61.573 64.715 58.411 65.77 Z"
        fill="#ffffff"/>
    <path
        id="path_2"
        d="M 187.288 192.257 C 187.157 193.191 187.231 194.17 187.567 195.127 C 188.673 198.31 192.17 199.99 195.352 198.884 C 198.535 197.774 200.215 194.282 199.109 191.1 C 198.773 190.143 198.222 189.33 197.537 188.682 C 200.664 187.543 202.32 184.085 201.214 180.93 C 200.109 177.747 196.612 176.063 193.43 177.173 C 191.895 177.709 190.709 178.802 190.023 180.146 C 189.669 177.887 189.631 175.041 191.512 174.382 L 187.307 175.848 L 183.102 177.318 C 184.987 176.655 186.728 178.915 187.858 180.902 C 186.481 180.277 184.876 180.161 183.336 180.697 C 180.152 181.803 178.473 185.299 179.583 188.482 C 180.679 191.631 184.123 193.316 187.288 192.257 Z"
        fill="#ffffff"/>
    <path
        id="path_3"
        d="M 231.027 205.806 C 231.853 204.098 231.965 202.118 231.336 200.327 L 163.075 4.804 C 162.449 3.007 161.133 1.534 159.416 0.713 C 157.713 -0.113 155.738 -0.227 153.941 0.402 L 17.625 47.993 C 13.886 49.293 11.915 53.384 13.219 57.122 L 81.477 252.649 C 82.104 254.446 83.418 255.917 85.134 256.738 C 86.114 257.218 87.18 257.452 88.244 257.452 C 89.042 257.452 89.84 257.321 90.606 257.051 L 226.929 209.456 C 228.727 208.834 230.201 207.518 231.027 205.806 Z M 92.653 241.158 L 29.113 59.166 L 151.902 16.292 L 215.444 198.288 L 92.653 241.158 Z"
        fill="#ffffff"/>
    <path
        id="path_4"
        d="M 189.351 18.18 C 188.049 14.439 183.947 12.465 180.222 13.774 C 176.484 15.074 174.509 19.165 175.817 22.903 L 241.72 211.663 L 112.167 256.896 C 108.428 258.199 106.455 262.287 107.759 266.025 C 108.793 268.984 111.563 270.833 114.526 270.833 C 115.31 270.833 116.108 270.711 116.888 270.432 L 253.206 222.837 C 256.944 221.539 258.919 217.446 257.612 213.708 L 189.351 18.18 Z"
        fill="#ffffff"/>
</svg>
