<svg
    xmlns="http://www.w3.org/2000/svg"
    viewBox="0 0 512 512"
    id="vector">
    <path
        id="path"
        d="M 233.504 260.832 L 253.04 275.953 L 233.505 291.077 C 228.747 294.76 227.876 301.602 231.558 306.36 C 233.705 309.133 236.925 310.587 240.18 310.586 C 242.509 310.586 244.856 309.842 246.84 308.307 L 270.051 290.34 C 280.896 299.92 302.698 315.717 328.573 315.717 C 364.91 315.717 393.236 284.549 394.425 283.222 C 398.129 279.086 398.129 272.824 394.425 268.688 C 393.238 267.361 364.911 236.193 328.573 236.193 C 302.698 236.193 280.896 251.991 270.051 261.57 L 246.84 243.603 C 242.082 239.923 235.24 240.792 231.557 245.55 C 227.875 250.307 228.745 257.149 233.504 260.832 Z M 328.572 257.982 C 345.739 257.982 361.399 268.476 370.362 275.936 C 361.367 283.395 345.638 293.931 328.572 293.931 C 311.4 293.931 295.739 283.433 286.781 275.977 C 295.776 268.518 311.505 257.982 328.572 257.982 Z"
        fill="#ffffff"/>
    <path
        id="path_1"
        d="M 218.398 346.368 C 192.522 346.368 170.721 362.166 159.876 371.746 L 136.665 353.779 C 131.907 350.098 125.065 350.967 121.382 355.726 C 117.7 360.483 118.57 367.325 123.329 371.009 L 142.865 386.13 L 123.329 401.251 C 118.572 404.934 117.7 411.776 121.382 416.534 C 123.529 419.307 126.749 420.761 130.004 420.76 C 132.333 420.76 134.68 420.016 136.664 418.481 L 159.875 400.514 C 170.72 410.094 192.522 425.892 218.397 425.892 C 254.734 425.892 283.06 394.724 284.249 393.397 C 287.953 389.261 287.953 382.999 284.249 378.863 C 283.063 377.536 254.736 346.368 218.398 346.368 Z M 218.398 404.104 C 201.211 404.104 185.536 393.587 176.584 386.131 C 185.543 378.668 201.214 368.155 218.398 368.155 C 235.565 368.155 251.225 378.649 260.188 386.109 C 251.194 393.568 235.464 404.104 218.398 404.104 Z"
        fill="#ffffff"/>
    <path
        id="path_2"
        d="M 501.106 108.935 L 460.258 108.935 L 460.258 49.022 C 460.258 43.006 455.381 38.128 449.364 38.128 L 62.642 38.128 C 56.625 38.128 51.748 43.006 51.748 49.022 L 51.748 108.935 L 10.894 108.935 C 4.877 108.935 0 113.813 0 119.829 L 0 462.978 C 0 468.994 4.877 473.872 10.894 473.872 L 501.107 473.872 C 507.124 473.872 512.001 468.994 512.001 462.978 L 512.001 119.829 C 512 113.813 507.123 108.935 501.106 108.935 Z M 73.535 59.916 L 438.471 59.916 L 438.471 108.935 L 73.535 108.935 C 73.535 108.935 73.535 59.916 73.535 59.916 Z M 490.214 452.084 L 490.213 452.084 L 21.787 452.084 L 21.787 192.125 C 24.829 193.061 27.344 194.404 30.277 195.967 C 36.808 199.45 44.935 203.785 59.914 203.785 C 74.893 203.785 83.02 199.45 89.551 195.967 C 95.27 192.917 99.403 190.713 108.935 190.713 C 118.467 190.713 122.599 192.917 128.319 195.967 C 134.85 199.45 142.977 203.785 157.956 203.785 C 172.935 203.785 181.062 199.45 187.593 195.967 C 193.312 192.917 197.445 190.713 206.977 190.713 C 216.509 190.713 220.641 192.917 226.361 195.967 C 232.892 199.45 241.019 203.785 255.998 203.785 C 270.979 203.785 279.106 199.449 285.637 195.966 C 291.354 192.916 295.484 190.713 305.008 190.713 C 314.539 190.713 318.672 192.917 324.392 195.967 C 330.925 199.45 339.055 203.785 354.04 203.785 C 369.012 203.785 377.138 199.45 383.666 195.968 C 389.385 192.917 393.517 190.713 403.05 190.713 C 412.59 190.713 416.725 192.917 422.447 195.969 C 428.978 199.451 437.106 203.785 452.083 203.785 C 467.062 203.785 475.189 199.45 481.72 195.967 C 484.654 194.403 487.169 193.061 490.21 192.125 L 490.21 452.084 Z M 471.469 176.745 C 465.75 179.795 461.617 181.999 452.085 181.999 C 442.554 181.999 438.421 179.795 432.701 176.745 C 426.168 173.262 418.038 168.927 403.053 168.927 C 388.072 168.927 379.945 173.263 373.414 176.746 C 367.697 179.796 363.567 181.999 354.043 181.999 C 344.503 181.999 340.368 179.795 334.646 176.743 C 328.115 173.261 319.987 168.927 305.01 168.927 C 290.038 168.927 281.912 173.262 275.384 176.744 C 269.665 179.795 265.533 181.999 256 181.999 C 246.468 181.999 242.336 179.795 236.616 176.745 C 230.085 173.262 221.958 168.927 206.979 168.927 C 192 168.927 183.873 173.262 177.342 176.745 C 171.623 179.795 167.49 181.999 157.958 181.999 C 148.426 181.999 144.294 179.795 138.574 176.745 C 132.043 173.262 123.916 168.927 108.937 168.927 C 93.958 168.927 85.831 173.262 79.3 176.745 C 73.581 179.795 69.448 181.999 59.916 181.999 C 50.384 181.999 46.252 179.795 40.532 176.745 C 35.793 174.218 30.198 171.25 21.771 169.807 L 21.79 169.799 L 21.79 130.722 L 490.216 130.722 L 490.216 169.799 L 490.233 169.807 C 481.803 171.25 476.208 174.217 471.469 176.745 Z"
        fill="#ffffff"/>
    <path
        id="path_3"
        d="M 331.486 375.236 L 329.307 375.236 C 323.29 375.236 318.413 380.114 318.413 386.13 C 318.413 392.146 323.29 397.024 329.307 397.024 L 331.486 397.024 C 337.503 397.024 342.38 392.146 342.38 386.13 C 342.38 380.114 337.503 375.236 331.486 375.236 Z"
        fill="#ffffff"/>
    <path
        id="path_4"
        d="M 424.274 375.236 L 375.253 375.236 C 369.236 375.236 364.359 380.114 364.359 386.13 C 364.359 392.146 369.236 397.024 375.253 397.024 L 424.274 397.024 C 430.291 397.024 435.168 392.146 435.168 386.13 C 435.168 380.114 430.29 375.236 424.274 375.236 Z"
        fill="#ffffff"/>
    <path
        id="path_5"
        d="M 76.576 265.062 L 74.397 265.062 C 68.38 265.062 63.503 269.94 63.503 275.956 C 63.503 281.972 68.38 286.85 74.397 286.85 L 76.576 286.85 C 82.593 286.85 87.47 281.972 87.47 275.956 C 87.469 269.941 82.592 265.062 76.576 265.062 Z"
        fill="#ffffff"/>
    <path
        id="path_6"
        d="M 169.363 286.85 C 175.38 286.85 180.257 281.972 180.257 275.956 C 180.257 269.941 175.38 265.062 169.363 265.062 L 120.342 265.062 C 114.325 265.062 109.448 269.94 109.448 275.956 C 109.448 281.972 114.325 286.85 120.342 286.85 L 169.363 286.85 Z"
        fill="#ffffff"/>
</svg>
