<svg
    xmlns="http://www.w3.org/2000/svg"
    viewBox="0 0 478 478"
    id="vector">
    <path
        id="path"
        d="M 456.02 44.821 L 264.83 44.821 C 252.57 44.821 242.598 54.793 242.598 67.05 L 242.598 165.702 C 242.598 177.96 252.572 187.932 264.83 187.932 L 281.617 187.932 L 281.617 227.093 C 281.617 229.8 283.197 232.258 285.66 233.385 C 286.58 233.805 287.561 234.012 288.535 234.012 C 290.166 234.012 291.779 233.436 293.058 232.327 L 344.441 187.931 L 456.017 187.931 C 468.277 187.931 478.247 177.958 478.247 165.701 L 478.247 67.05 C 478.25 54.792 468.277 44.821 456.02 44.821 Z M 319.922 112.252 L 309.713 122.205 L 312.123 136.259 C 312.297 137.274 311.881 138.297 311.047 138.902 C 310.578 139.244 310.02 139.418 309.459 139.418 C 309.031 139.418 308.598 139.315 308.203 139.108 L 295.582 132.473 L 282.963 139.108 C 282.051 139.586 280.947 139.506 280.115 138.902 C 279.283 138.298 278.867 137.274 279.041 136.259 L 281.451 122.205 L 271.24 112.252 C 270.506 111.534 270.238 110.46 270.555 109.483 C 270.872 108.505 271.719 107.792 272.738 107.644 L 286.848 105.594 L 293.158 92.808 C 293.615 91.885 294.554 91.301 295.582 91.301 C 296.61 91.301 297.551 91.885 298.004 92.808 L 304.316 105.594 L 318.423 107.644 C 319.443 107.792 320.286 108.505 320.607 109.483 C 320.924 110.46 320.658 111.535 319.922 112.252 Z M 384.766 112.252 L 374.555 122.205 L 376.967 136.259 C 377.139 137.274 376.723 138.297 375.891 138.902 C 375.422 139.244 374.866 139.418 374.303 139.418 C 373.873 139.418 373.444 139.315 373.043 139.108 L 360.424 132.473 L 347.805 139.108 C 346.893 139.586 345.791 139.506 344.959 138.902 C 344.125 138.298 343.709 137.274 343.883 136.259 L 346.293 122.205 L 336.084 112.252 C 335.35 111.534 335.082 110.46 335.4 109.483 C 335.716 108.505 336.56 107.792 337.582 107.644 L 351.691 105.594 L 358.002 92.808 C 358.457 91.885 359.398 91.301 360.424 91.301 C 361.453 91.301 362.391 91.885 362.846 92.808 L 369.158 105.594 L 383.267 107.644 C 384.288 107.792 385.13 108.505 385.449 109.483 C 385.768 110.46 385.5 111.535 384.766 112.252 Z M 449.607 112.252 L 439.396 122.205 L 441.804 136.259 C 441.98 137.274 441.566 138.297 440.732 138.902 C 440.261 139.244 439.705 139.418 439.142 139.418 C 438.712 139.418 438.283 139.315 437.884 139.108 L 425.263 132.473 L 412.642 139.108 C 411.734 139.586 410.63 139.506 409.798 138.902 C 408.964 138.298 408.55 137.274 408.722 136.259 L 411.134 122.205 L 400.923 112.252 C 400.189 111.534 399.923 110.46 400.239 109.483 C 400.555 108.505 401.403 107.792 402.421 107.644 L 416.532 105.594 L 422.843 92.808 C 423.296 91.885 424.238 91.301 425.263 91.301 C 426.29 91.301 427.234 91.885 427.689 92.808 L 434 105.594 L 448.109 107.644 C 449.127 107.792 449.97 108.505 450.291 109.483 C 450.609 110.46 450.344 111.535 449.607 112.252 Z"
        fill="#000000"/>
    <path
        id="path_1"
        d="M 152.844 112.924 C 106.084 112.924 80.205 137.155 80.678 183.845 C 81.364 247.792 108.537 286.585 152.844 285.908 C 152.844 285.908 224.975 288.832 224.975 183.845 C 224.975 137.155 200.605 112.924 152.844 112.924 Z"
        fill="#000000"/>
    <path
        id="path_2"
        d="M 280.428 334.444 L 208.354 305.708 L 191.477 291.485 C 187.02 287.719 180.436 287.997 176.299 292.106 L 152.836 315.442 L 129.303 292.1 C 125.166 287.996 118.59 287.731 114.139 291.485 L 97.258 305.708 L 25.184 334.447 C 1.975 343.69 1.995 425.884 0 433.427 L 305.646 433.427 C 303.656 425.9 303.646 343.679 280.428 334.444 Z"
        fill="#000000"/>
</svg>
