<svg
    xmlns="http://www.w3.org/2000/svg"
    viewBox="0 0 502 502"
    id="vector">
    <path
        id="path"
        d="M 431 452.5 C 450.299 452.5 466 436.799 466 417.5 C 466 398.201 450.299 382.5 431 382.5 C 411.701 382.5 396 398.201 396 417.5 C 396 436.799 411.701 452.5 431 452.5 Z M 431 402.5 C 439.271 402.5 446 409.229 446 417.5 C 446 425.771 439.271 432.5 431 432.5 C 422.729 432.5 416 425.771 416 417.5 C 416 409.229 422.729 402.5 431 402.5 Z"
        fill="#ffffff"/>
    <path
        id="path_1"
        d="M 343 443.5 C 357.336 443.5 369 431.836 369 417.5 C 369 403.164 357.336 391.5 343 391.5 C 328.664 391.5 317 403.164 317 417.5 C 317 431.836 328.664 443.5 343 443.5 Z M 343 411.5 C 346.309 411.5 349 414.191 349 417.5 C 349 420.809 346.309 423.5 343 423.5 C 339.691 423.5 337 420.809 337 417.5 C 337 414.191 339.691 411.5 343 411.5 Z"
        fill="#ffffff"/>
    <path
        id="path_2"
        d="M 60 427.5 L 277 427.5 C 282.523 427.5 287 423.023 287 417.5 C 287 411.977 282.523 407.5 277 407.5 L 60 407.5 C 54.477 407.5 50 411.977 50 417.5 C 50 423.023 54.477 427.5 60 427.5 Z"
        fill="#ffffff"/>
    <path
        id="path_3"
        d="M 492 179.5 L 455 179.5 L 455 175.848 C 455 170.325 450.523 165.848 445 165.848 C 439.477 165.848 435 170.325 435 175.848 L 435 179.5 L 65 179.5 L 65 175.848 C 65 170.325 60.523 165.848 55 165.848 C 49.477 165.848 45 170.325 45 175.848 L 45 179.5 L 10 179.5 C 4.477 179.5 0 183.977 0 189.5 L 0 311.5 C 0 317.023 4.477 321.5 10 321.5 L 45 321.5 L 45 346.5 L 10 346.5 C 4.477 346.5 0 350.977 0 356.5 L 0 478.5 C 0 484.023 4.477 488.5 10 488.5 L 492 488.5 C 497.523 488.5 502 484.023 502 478.5 L 502 356.5 C 502 350.977 497.523 346.5 492 346.5 L 455 346.5 L 455 321.5 L 492 321.5 C 497.523 321.5 502 317.023 502 311.5 L 502 189.5 C 502 183.977 497.523 179.5 492 179.5 Z M 482 366.5 L 482 468.5 L 20 468.5 L 20 366.5 L 482 366.5 Z M 65 346.5 L 65 321.5 L 435 321.5 L 435 346.5 L 65 346.5 Z M 482 301.5 L 20 301.5 L 20 199.5 L 482 199.5 L 482 301.5 Z"
        fill="#ffffff"/>
    <path
        id="path_4"
        d="M 431 285.5 C 450.299 285.5 466 269.799 466 250.5 C 466 231.201 450.299 215.5 431 215.5 C 411.701 215.5 396 231.201 396 250.5 C 396 269.799 411.701 285.5 431 285.5 Z M 431 235.5 C 439.271 235.5 446 242.229 446 250.5 C 446 258.771 439.271 265.5 431 265.5 C 422.729 265.5 416 258.771 416 250.5 C 416 242.229 422.729 235.5 431 235.5 Z"
        fill="#ffffff"/>
    <path
        id="path_5"
        d="M 343 276.5 C 357.336 276.5 369 264.836 369 250.5 C 369 236.164 357.336 224.5 343 224.5 C 328.664 224.5 317 236.164 317 250.5 C 317 264.836 328.664 276.5 343 276.5 Z M 343 244.5 C 346.309 244.5 349 247.191 349 250.5 C 349 253.809 346.309 256.5 343 256.5 C 339.691 256.5 337 253.809 337 250.5 C 337 247.191 339.691 244.5 343 244.5 Z"
        fill="#ffffff"/>
    <path
        id="path_6"
        d="M 60 260.5 L 277 260.5 C 282.523 260.5 287 256.023 287 250.5 C 287 244.977 282.523 240.5 277 240.5 L 60 240.5 C 54.477 240.5 50 244.977 50 250.5 C 50 256.023 54.477 260.5 60 260.5 Z"
        fill="#ffffff"/>
    <path
        id="path_7"
        d="M 492 13.5 L 10 13.5 C 4.477 13.5 0 17.977 0 23.5 L 0 145.5 C 0 151.023 4.477 155.5 10 155.5 L 492 155.5 C 497.523 155.5 502 151.023 502 145.5 L 502 23.5 C 502 17.977 497.523 13.5 492 13.5 Z M 482 135.5 L 20 135.5 L 20 33.5 L 482 33.5 L 482 135.5 Z"
        fill="#ffffff"/>
    <path
        id="path_8"
        d="M 431 119.5 C 450.299 119.5 466 103.799 466 84.5 C 466 65.201 450.299 49.5 431 49.5 C 411.701 49.5 396 65.201 396 84.5 C 396 103.799 411.701 119.5 431 119.5 Z M 431 69.5 C 439.271 69.5 446 76.229 446 84.5 C 446 92.771 439.271 99.5 431 99.5 C 422.729 99.5 416 92.771 416 84.5 C 416 76.229 422.729 69.5 431 69.5 Z"
        fill="#ffffff"/>
    <path
        id="path_9"
        d="M 343 110.5 C 357.336 110.5 369 98.836 369 84.5 C 369 70.164 357.336 58.5 343 58.5 C 328.664 58.5 317 70.164 317 84.5 C 317 98.836 328.664 110.5 343 110.5 Z M 343 78.5 C 346.309 78.5 349 81.191 349 84.5 C 349 87.809 346.309 90.5 343 90.5 C 339.691 90.5 337 87.809 337 84.5 C 337 81.191 339.691 78.5 343 78.5 Z"
        fill="#ffffff"/>
    <path
        id="path_10"
        d="M 60 94.5 L 210 94.5 C 215.523 94.5 220 90.023 220 84.5 C 220 78.977 215.523 74.5 210 74.5 L 60 74.5 C 54.477 74.5 50 78.977 50 84.5 C 50 90.023 54.477 94.5 60 94.5 Z"
        fill="#ffffff"/>
    <path
        id="path_11"
        d="M 247 94.5 L 277 94.5 C 282.523 94.5 287 90.023 287 84.5 C 287 78.977 282.523 74.5 277 74.5 L 247 74.5 C 241.477 74.5 237 78.977 237 84.5 C 237 90.023 241.477 94.5 247 94.5 Z"
        fill="#ffffff"/>
</svg>
