<svg
    xmlns="http://www.w3.org/2000/svg"
    viewBox="0 0 250 250"
    id="vector">
    <path
        id="path"
        d="M 226.202 243.116 C 225.005 240.48 220.67 228.83 216.081 216.496 C 210.486 201.457 204.144 184.411 201.013 177.011 C 198.172 170.296 189.518 154.323 180.355 137.413 C 170.89 119.944 161.102 101.882 158.725 95.786 C 158.491 95.155 156.803 88.544 169.511 51.14 C 176.221 31.393 183.6 12.905 183.674 12.72 L 185.684 7.694 L 160.921 0.007 L 156.647 30.257 L 125.125 44.458 L 93.709 29.839 L 89.606 0 L 64.843 7.687 L 66.826 12.703 C 66.899 12.888 74.188 31.351 80.819 51.103 C 93.391 88.551 91.689 95.157 91.455 95.785 C 89.082 101.87 79.317 119.892 69.875 137.32 C 60.687 154.279 52.008 170.299 49.164 177.034 C 46.055 184.4 39.736 201.369 34.163 216.34 C 29.543 228.748 25.18 240.469 23.976 243.119 L 20.771 250.184 L 229.412 250.184 L 226.202 243.116 Z"
        fill="#ffffff"/>
</svg>
